<svg width="129" height="6" viewBox="0 0 129 6" fill="none" xmlns="http://www.w3.org/2000/svg">
<path fill-rule="evenodd" clip-rule="evenodd" d="M1.26146 3.10965L10.4756 2.86548L18.9219 2.62131L27.1488 2.33645C28.3554 2.29575 29.6168 2.21436 30.8783 2.21436L36.3629 2.13298H39.3794L45.0286 2.21436L53.4748 2.45853L70.7513 2.98756L79.2525 3.31312L87.6987 3.59798C93.0188 3.76076 98.3389 3.88284 103.604 4.12701L107.992 4.33048L112.873 4.61535L117.096 4.90021L118.851 5.02229L120.881 5.22576L123.733 5.46993L127.352 5.95827L127.681 5.99896C127.959 6.00867 128.233 5.95011 128.461 5.83237C128.689 5.71463 128.859 5.54431 128.943 5.34785C129.053 5.10368 128.998 4.81882 128.833 4.57465C128.724 4.41187 128.394 4.16771 128.12 4.12701L125.817 3.80145L123.513 3.51659C121.014 3.26779 118.509 3.05072 115.999 2.86548C116.207 2.75898 116.37 2.61023 116.467 2.43702C116.564 2.26382 116.592 2.07349 116.548 1.88881C116.438 1.64464 116.219 1.40047 115.999 1.27839L115.396 1.07492C114.924 1.00662 114.448 0.952313 113.97 0.912137L112.873 0.790053L110.789 0.708664L106.675 0.545886L98.1743 0.342413L89.7281 0.220329L85.2855 0.13894H71.9031L63.2374 0.0575509C57.9174 0.0168563 52.4876 -0.0238383 47.1127 0.0168563H39.1052C36.2532 0.0168563 33.4012 0.0168562 30.5492 0.0982454L24.9001 0.13894L21.6642 0.179635L16.5086 0.342413L13.1082 0.464497C9.04959 0.66797 5.04583 0.871443 1.04207 1.1563C0.767844 1.197 0.603306 1.27839 0.438768 1.40047C0.164538 1.56325 0 1.80742 0 2.05159C0 2.58062 0.54846 3.06895 1.26146 3.06895" fill="#7AAF7E"/>
</svg>
