<svg width="81" height="117" viewBox="0 0 81 117" fill="none" xmlns="http://www.w3.org/2000/svg">
<g clip-path="url(#clip0_1197_33243)">
<path d="M17.4066 35.8096C10.6069 35.8096 5.06995 41.4268 5.06995 48.325C5.06995 55.2233 10.6069 60.8405 17.4066 60.8405C24.2064 60.8405 29.7433 55.2233 29.7433 48.325C29.7433 41.4268 24.2064 35.8096 17.4066 35.8096Z" fill="#F68B6D"/>
<path d="M17.4066 83.3096H11.7725C11.4811 83.3096 11.1897 83.014 11.1897 82.7184V65.4726C11.1897 65.177 11.4811 64.8813 11.7725 64.8813C12.064 64.8813 12.3554 65.177 12.3554 65.4726V82.1271H17.4066C17.698 82.1271 17.9894 82.4227 17.9894 82.7184C17.9894 83.1125 17.7952 83.3096 17.4066 83.3096Z" fill="white"/>
<path d="M68.4046 83.3096H62.6734C62.382 83.3096 62.0906 83.014 62.0906 82.7184C62.0906 82.4227 62.382 82.1271 62.6734 82.1271H67.7247V65.4726C67.7247 65.177 68.0161 64.8813 68.3075 64.8813C68.5989 64.8813 68.8903 65.177 68.8903 65.4726V82.7184C68.9875 83.1125 68.696 83.3096 68.4046 83.3096Z" fill="white"/>
<path d="M57.0394 83.3095H23.0407C22.7493 83.3095 22.4579 83.0139 22.4579 82.7183V59.7568C22.4579 59.4612 22.7493 59.1655 23.0407 59.1655C23.3321 59.1655 23.6236 59.4612 23.6236 59.7568V82.127H56.3595V59.7568C56.3595 59.4612 56.6509 59.1655 56.9423 59.1655C57.2337 59.1655 57.5251 59.4612 57.5251 59.7568V82.7183C57.6223 83.1124 57.428 83.3095 57.0394 83.3095Z" fill="white"/>
<path d="M79.6728 60.3482C79.5757 60.3482 79.4785 60.3482 79.3814 60.2497L62.5763 48.9168H17.6008L0.795762 60.2497C0.504345 60.4468 0.115788 60.3482 -0.07849 60.0526C-0.272768 59.7569 -0.17563 59.3628 0.115787 59.1657L17.1151 47.6357C17.2123 47.5371 17.3094 47.5371 17.4066 47.5371H62.6734C62.7706 47.5371 62.8677 47.5371 62.9649 47.6357L79.9642 59.1657C80.2556 59.3628 80.3528 59.7569 80.1585 60.0526C80.0614 60.2497 79.8671 60.3482 79.6728 60.3482Z" fill="white"/>
<path d="M34.9888 82.1271H45.0913V66.1625H34.9888V82.1271ZM45.7712 83.3096H34.406C34.1145 83.3096 33.8231 83.014 33.8231 82.7184V65.4726C33.8231 65.177 34.1145 64.8813 34.406 64.8813H45.7712C46.0627 64.8813 46.3541 65.177 46.3541 65.4726V82.7184C46.3541 83.1125 46.0627 83.3096 45.7712 83.3096Z" fill="white"/>
<path d="M7.78985 15.7059C7.98413 15.7059 8.17841 15.8044 8.37269 16.0015L12.2583 20.7318C12.4525 20.9288 12.4525 21.1259 12.4525 21.323C12.4525 21.5201 12.3554 21.7172 12.1611 21.9143C11.9668 22.1114 11.7726 22.1114 11.4811 22.1114L5.74993 20.8303L8.37269 23.9838C8.56697 24.1809 8.56696 24.378 8.56696 24.5751C8.56696 24.7722 8.46982 24.9693 8.27555 25.1664C8.08127 25.3635 7.88699 25.3635 7.69271 25.3635C7.49843 25.3635 7.30415 25.2649 7.10987 25.0678L3.22431 20.3376C3.03003 20.1405 3.03003 19.9434 3.03003 19.7463C3.03003 19.5492 3.12717 19.3521 3.32145 19.155C3.51573 18.9579 3.71001 18.9579 4.00142 18.9579L9.73263 20.1405L7.10987 16.987C6.9156 16.7899 6.9156 16.5928 6.9156 16.3957C6.9156 16.1986 7.01274 16.0015 7.20702 15.8044C7.30416 15.7059 7.49843 15.6073 7.78985 15.7059Z" fill="white"/>
<path d="M16.7267 10.1878C16.921 10.2864 17.1152 10.3849 17.2124 10.582L20.1266 16.0021C20.2237 16.1992 20.3208 16.3963 20.2237 16.6919C20.1265 16.889 20.0294 17.0861 19.8351 17.1847C19.6409 17.2832 19.4466 17.3818 19.1552 17.2832C18.9609 17.1847 18.7666 17.0861 18.6695 16.889L17.5038 14.721L14.3953 16.3963L15.561 18.5643C15.6581 18.7614 15.7553 18.9585 15.6581 19.2542C15.561 19.4513 15.4639 19.6484 15.2696 19.7469C15.0753 19.8454 14.881 19.944 14.5896 19.8454C14.3953 19.7469 14.2011 19.6484 14.1039 19.4513L11.1897 14.0312C11.0926 13.8341 10.9955 13.637 11.0926 13.3413C11.1897 13.1443 11.2869 12.9472 11.4812 12.8486C11.6754 12.7501 11.8697 12.6515 12.1611 12.7501C12.3554 12.8486 12.5497 12.9472 12.6468 13.1443L13.7154 15.2137L16.8238 13.5384L15.7553 11.3704C15.6581 11.1733 15.561 10.9762 15.6581 10.6806C15.7553 10.4835 15.8524 10.2864 16.0467 10.1878C16.3381 10.1878 16.5324 10.0893 16.7267 10.1878Z" fill="white"/>
<path d="M23.6235 12.2572L26.052 11.4688L24.0121 9.10365L23.6235 12.2572ZM29.1605 12.947C29.2576 13.1441 29.1605 13.3412 29.0633 13.5383C28.9662 13.7354 28.7719 13.8339 28.5776 13.9325C28.4805 13.9325 28.2862 13.9325 28.1891 13.9325C28.0919 13.9325 27.8976 13.8339 27.8005 13.7354L26.8291 12.6513L23.3321 13.8339L23.1378 15.2136C23.1378 15.4107 23.0407 15.5092 22.9435 15.6078C22.8464 15.7063 22.7493 15.8048 22.6521 15.8048C22.4578 15.9034 22.2636 15.9034 22.0693 15.8048C21.875 15.7063 21.7779 15.6078 21.6807 15.4107C21.6807 15.3121 21.6807 15.2136 21.6807 15.0165L22.555 8.21673C22.555 8.01963 22.6521 7.82254 22.7493 7.72399C22.8464 7.62544 23.0407 7.5269 23.235 7.42835C23.4292 7.3298 23.6235 7.3298 23.8178 7.42835C24.0121 7.42835 24.1092 7.5269 24.3035 7.72399L28.9662 12.7499C29.0633 12.7499 29.1605 12.8484 29.1605 12.947ZM21.6807 6.63997C21.3893 6.63997 21.195 6.44288 21.0979 6.24579C21.0979 6.14724 21.0979 5.95014 21.0979 5.8516C21.195 5.6545 21.2922 5.55596 21.4865 5.55596C21.6807 5.45741 21.875 5.55596 22.0693 5.6545L23.235 6.24579C23.3321 6.24579 23.4292 6.34433 23.4292 6.44288C23.4292 6.54143 23.4292 6.63997 23.4292 6.73852C23.3321 6.83707 23.3321 6.83707 23.235 6.93561C23.1378 6.93561 23.1378 6.93561 23.0407 6.93561L21.6807 6.63997Z" fill="white"/>
<path d="M37.7087 11.1732C39.3601 11.0747 40.1372 10.2863 40.0401 8.611C39.9429 6.9357 39.1658 6.14732 37.5145 6.24587H36.3488L36.5431 11.1732H37.7087ZM35.1831 12.4543C35.086 12.3558 34.9888 12.1587 34.9888 11.863L34.7946 5.75313C34.7946 5.45749 34.8917 5.2604 34.9888 5.16185C35.086 5.06331 35.2803 4.96476 35.5717 4.96476L37.7087 4.86621C38.4858 4.86621 39.263 4.96476 39.8458 5.2604C40.4286 5.55604 40.9143 5.95023 41.3029 6.54151C41.5943 7.13279 41.7886 7.82262 41.8857 8.611C41.8857 9.39937 41.7886 10.0892 41.4972 10.6805C41.2057 11.2718 40.72 11.7645 40.1372 12.0601C39.5544 12.3558 38.8744 12.5529 38.0002 12.5529L35.8631 12.6514C35.4745 12.6514 35.2803 12.5529 35.1831 12.4543Z" fill="white"/>
<path d="M44.2171 12.5527C44.1199 12.3556 44.0228 12.1585 44.0228 11.8628L44.6056 5.75292C44.6056 5.45728 44.7028 5.26018 44.8971 5.16164C45.0913 5.06309 45.2856 4.96454 45.577 4.96454C45.8684 4.96454 46.0627 5.06309 46.1599 5.26018C46.257 5.45728 46.3541 5.65437 46.3541 5.85146L45.7713 11.9614C45.7713 12.257 45.6742 12.4541 45.4799 12.5527C45.2856 12.6512 45.0913 12.7498 44.7999 12.7498C44.5085 12.7498 44.3142 12.6512 44.2171 12.5527ZM44.3142 3.68343C44.0228 3.48634 43.9257 3.28924 43.9257 3.09215C43.9257 2.89505 44.0228 2.79651 44.1199 2.69796C44.2171 2.59941 44.4114 2.50087 44.5085 2.59941C44.7028 2.59941 44.897 2.69796 44.9942 2.89505L45.8684 3.88052C45.9656 3.97907 45.9656 4.07762 45.9656 4.17617C45.9656 4.27471 45.8684 4.37326 45.8684 4.37326C45.7713 4.47181 45.6742 4.47181 45.577 4.47181C45.4799 4.47181 45.4799 4.47181 45.3827 4.37326L44.3142 3.68343Z" fill="white"/>
<path d="M52.9595 14.2279C52.571 13.9322 52.1824 13.6366 51.9881 13.341C51.891 13.2424 51.891 13.1439 51.891 13.0453C51.891 12.9468 51.891 12.8482 51.891 12.6511C51.9881 12.454 52.0853 12.3555 52.1824 12.2569C52.3767 12.1584 52.4738 12.1584 52.571 12.1584C52.6681 12.1584 52.6681 12.2569 52.7652 12.2569C52.8624 12.2569 52.8624 12.3555 52.9595 12.454C53.1538 12.7497 53.4452 12.9468 53.7366 13.1439C54.0281 13.341 54.3195 13.4395 54.708 13.6366C55.1937 13.8337 55.4851 13.8337 55.7766 13.7351C56.068 13.6366 56.2623 13.4395 56.3594 13.2424C56.4565 13.0453 56.3594 12.8482 56.1651 12.6511C55.9708 12.454 55.5823 12.1584 55.0966 11.8628C54.5138 11.5671 54.0281 11.1729 53.7366 10.8773C53.4452 10.5816 53.2509 10.286 53.1538 9.89181C53.0567 9.59617 53.0567 9.20198 53.2509 8.8078C53.3481 8.41361 53.6395 8.01942 54.0281 7.72378C54.4166 7.42814 54.8052 7.32959 55.2909 7.23104C55.7766 7.1325 56.3594 7.23104 56.8451 7.42814C57.8165 7.72378 58.4965 8.21651 58.9822 9.00489C59.0793 9.10344 59.0793 9.20198 59.0793 9.30053C59.0793 9.39908 59.0793 9.49762 59.0793 9.59617C58.9822 9.79327 58.885 9.89181 58.7879 9.99036C58.5936 10.0889 58.4965 10.0889 58.3993 10.0889C58.3022 10.0889 58.3022 9.99036 58.205 9.99036C58.1079 9.99036 58.1079 9.89181 58.0108 9.79327C57.8165 9.49763 57.5251 9.30053 57.3308 9.10344C57.1365 8.90634 56.8451 8.8078 56.4565 8.70925C56.068 8.6107 55.6794 8.51215 55.388 8.6107C55.0966 8.70925 54.9023 8.90634 54.8052 9.20198C54.708 9.39908 54.708 9.49763 54.8052 9.69472C54.9023 9.79327 54.9994 9.99036 55.1937 10.0889C55.388 10.286 55.6794 10.3845 56.068 10.6802C56.9422 11.1729 57.5251 11.6657 57.8165 12.1584C58.1079 12.6511 58.205 13.1439 58.0108 13.7351C57.9136 14.2279 57.6222 14.5235 57.2336 14.8192C56.8451 15.1148 56.4565 15.2134 55.9708 15.3119C55.4851 15.3119 54.9023 15.3119 54.3195 15.1148C53.8338 14.7206 53.3481 14.5235 52.9595 14.2279Z" fill="white"/>
<path d="M65.879 10.779C65.7819 10.779 65.6848 10.6805 65.6848 10.5819C65.6848 10.4834 65.6848 10.3848 65.6848 10.2863C65.6848 10.1877 65.7819 10.1877 65.9762 10.0892L67.239 9.695C67.4333 9.59646 67.6275 9.59646 67.8218 9.695C67.919 9.79355 68.0161 9.8921 68.1132 10.0892C68.2104 10.2863 68.1132 10.3848 68.1132 10.5819C68.0161 10.6805 68.0161 10.779 67.919 10.779C67.8218 10.8776 67.6275 10.8776 67.5304 10.8776H66.1705C65.9762 10.8776 65.879 10.779 65.879 10.779ZM62.2849 14.918L64.5191 16.1006L64.7134 12.9471L62.2849 14.918ZM65.6848 19.3526C65.5876 19.5497 65.3933 19.6483 65.1991 19.6483C65.0048 19.6483 64.8105 19.6483 64.6162 19.5497C64.5191 19.4512 64.422 19.3526 64.3248 19.2541C64.3248 19.2541 64.3248 19.057 64.3248 18.8599L64.4219 17.4802L61.2164 15.7064L60.1478 16.5933C60.0507 16.6918 59.8564 16.7904 59.7593 16.7904C59.6621 16.7904 59.4679 16.7904 59.3707 16.6918C59.1764 16.5933 59.0793 16.3962 58.9822 16.1991C58.885 16.002 58.885 15.8049 58.9822 15.6078C58.9822 15.5093 59.0793 15.4107 59.1764 15.3122L64.6162 11.2718C64.8105 11.1732 64.9077 11.0747 65.1019 11.0747C65.2962 11.0747 65.4905 11.0747 65.5876 11.1732C65.7819 11.2718 65.879 11.3703 65.9762 11.5674C66.0733 11.7645 66.0733 11.863 66.0733 12.0601L65.7819 18.9584C65.7819 19.1555 65.7819 19.2541 65.6848 19.3526Z" fill="white"/>
<path d="M67.8218 20.8305C67.7247 20.0421 68.0161 19.2537 68.6961 18.3668L71.0274 15.4104C71.2217 15.2133 71.416 15.1147 71.6102 15.1147C71.8045 15.1147 71.9988 15.1147 72.1931 15.3118C72.3873 15.5089 72.4845 15.706 72.4845 15.9031C72.4845 16.1002 72.3873 16.2973 72.2902 16.4944L69.9589 19.4508C69.5703 19.9435 69.376 20.3377 69.376 20.8305C69.376 21.2247 69.5703 21.6188 70.056 22.013C70.4446 22.3087 70.8331 22.5058 71.3188 22.4072C71.7074 22.3087 72.0959 22.013 72.4845 21.6188L74.8158 18.6624C75.0101 18.4653 75.2044 18.3668 75.3987 18.3668C75.5929 18.3668 75.7872 18.3668 75.9815 18.5639C76.1758 18.761 76.2729 18.9581 76.2729 19.1552C76.2729 19.3523 76.2729 19.5494 76.0786 19.7465L73.7473 22.7029C73.0673 23.4912 72.3873 23.984 71.6102 24.0825C70.8331 24.1811 70.056 23.8854 69.1818 23.1956C68.3075 22.4072 67.9189 21.6188 67.8218 20.8305Z" fill="white"/>
<path d="M7.40122 102.034C7.5955 101.836 7.78978 101.836 7.98406 102.034L8.85831 102.723C8.95545 102.822 9.05259 102.92 9.05259 103.019C9.05259 103.118 9.05259 103.216 8.95545 103.315C8.85831 103.413 8.76117 103.512 8.66403 103.512C8.56689 103.512 8.46975 103.512 8.27547 103.413L7.40122 102.723C7.30408 102.428 7.30408 102.231 7.40122 102.034Z" fill="white"/>
<path d="M12.2582 107.059C12.2582 106.961 12.2582 106.862 12.3553 106.764L13.9095 104.004C14.0067 103.906 14.1038 103.807 14.1038 103.807C14.201 103.807 14.2981 103.807 14.3952 103.906L16.1437 104.891C16.338 104.99 16.4352 105.187 16.338 105.384C16.2409 105.581 16.0466 105.581 15.8523 105.482L14.4924 104.694L14.0067 105.482L15.2695 106.172C15.4638 106.271 15.5609 106.468 15.4638 106.665C15.3666 106.862 15.1724 106.862 14.9781 106.764L13.7153 106.074L13.2296 106.961L14.5895 107.749C14.7838 107.848 14.8809 108.045 14.7838 108.242C14.6867 108.439 14.4924 108.439 14.2981 108.34L12.5496 107.355C12.3553 107.256 12.2582 107.158 12.2582 107.059Z" fill="white"/>
<path d="M17.0181 109.523C16.8238 109.227 16.7267 108.932 16.7267 108.636C16.7267 108.242 16.8238 107.946 16.921 107.552C17.1152 107.158 17.3095 106.862 17.6009 106.665C17.8924 106.468 18.1838 106.37 18.4752 106.271C18.7666 106.271 19.1552 106.271 19.5437 106.468C20.0294 106.665 20.3208 106.961 20.5151 107.355C20.5151 107.454 20.6123 107.454 20.6123 107.552C20.6123 107.651 20.6123 107.651 20.6123 107.749C20.6123 107.848 20.5151 107.946 20.418 107.946C20.3208 107.946 20.2237 107.946 20.2237 107.946C20.2237 107.946 20.1266 107.946 20.1266 107.848C20.1266 107.749 20.0294 107.749 20.0294 107.749C19.9323 107.552 19.8351 107.454 19.738 107.355C19.6409 107.256 19.5437 107.158 19.3494 107.158C19.058 106.961 18.7666 106.961 18.4752 107.158C18.1838 107.256 17.9895 107.552 17.7952 107.946C17.4067 108.735 17.6009 109.326 18.1838 109.622C18.2809 109.72 18.4752 109.72 18.5723 109.72C18.6695 109.72 18.8637 109.72 19.058 109.72C19.1552 109.72 19.1552 109.72 19.2523 109.72C19.3494 109.72 19.3494 109.72 19.3494 109.72C19.4466 109.72 19.4466 109.819 19.4466 109.917C19.4466 110.016 19.4466 110.114 19.4466 110.213C19.4466 110.311 19.3494 110.311 19.3494 110.311C19.3494 110.311 19.2523 110.41 19.1552 110.41C18.7666 110.509 18.2809 110.41 17.7952 110.213C17.5038 110.016 17.2124 109.819 17.0181 109.523Z" fill="white"/>
<path d="M23.6235 111.297C23.9149 111.1 24.1092 110.804 24.2064 110.41C24.3035 110.016 24.4006 109.621 24.3035 109.326C24.2064 109.03 24.0121 108.833 23.7207 108.735C23.4293 108.636 23.1378 108.636 22.8464 108.833C22.555 109.03 22.3607 109.326 22.2636 109.72C22.1664 110.114 22.0693 110.508 22.1664 110.804C22.2636 111.1 22.4579 111.297 22.7493 111.395C23.0407 111.494 23.3321 111.494 23.6235 111.297ZM21.6807 111.494C21.4865 111.198 21.2922 110.903 21.2922 110.607C21.1951 110.311 21.2922 109.917 21.3893 109.523C21.4865 109.129 21.6807 108.833 21.9722 108.537C22.2636 108.34 22.4579 108.143 22.8464 108.045C23.1378 107.946 23.5264 108.045 23.9149 108.143C24.3035 108.242 24.5949 108.439 24.7892 108.735C24.9835 109.03 25.1778 109.326 25.1778 109.621C25.2749 109.917 25.1778 110.311 25.0806 110.705C24.9835 111.1 24.7892 111.395 24.4978 111.691C24.2064 111.888 24.0121 112.085 23.6235 112.184C23.3321 112.282 22.9436 112.184 22.555 112.085C22.1664 111.888 21.875 111.691 21.6807 111.494Z" fill="white"/>
<path d="M26.5377 111.592C26.6349 111.395 26.732 111.297 27.0234 111.395L28.0919 111.691C28.3834 111.789 28.4805 111.888 28.3834 112.085C28.2862 112.282 28.1891 112.381 27.8977 112.282L26.8291 111.986C26.6349 111.986 26.5377 111.888 26.5377 111.592Z" fill="white"/>
<path d="M34.0174 110.607C34.1145 110.705 34.1145 110.804 34.1145 110.903L33.6288 114.056C33.6288 114.155 33.5317 114.253 33.4346 114.352C33.3374 114.45 33.2403 114.45 33.1432 114.45C33.046 114.45 32.9489 114.352 32.8517 114.253C32.7546 114.155 32.7546 114.056 32.7546 113.958L32.9489 112.676L31.2004 112.381L31.0061 113.662C31.0061 113.76 30.909 113.859 30.8118 113.958C30.7147 114.056 30.6175 114.056 30.5204 114.056C30.4233 114.056 30.3261 113.958 30.229 113.859C30.1318 113.76 30.1318 113.662 30.1318 113.563L30.6175 110.41C30.6175 110.311 30.7147 110.213 30.8118 110.114C30.909 110.016 31.0061 110.016 31.1032 110.016C31.2004 110.016 31.2975 110.114 31.3946 110.213C31.4918 110.311 31.4918 110.41 31.4918 110.508L31.2975 111.691L33.046 111.987L33.2403 110.804C33.2403 110.705 33.3374 110.607 33.4346 110.508C33.5317 110.41 33.6288 110.41 33.726 110.41C33.8231 110.508 33.9203 110.508 34.0174 110.607Z" fill="white"/>
<path d="M38.2915 113.859C38.4858 113.662 38.583 113.268 38.583 112.874C38.583 112.479 38.4858 112.085 38.3887 111.888C38.1944 111.691 38.0001 111.494 37.6116 111.494C37.3202 111.494 37.0287 111.592 36.8345 111.79C36.6402 111.987 36.543 112.381 36.543 112.775C36.543 113.169 36.6402 113.563 36.7373 113.761C36.9316 113.958 37.1259 114.155 37.5144 114.155C37.8059 114.155 38.0973 114.056 38.2915 113.859ZM36.4459 114.549C36.1545 114.352 35.9602 114.155 35.7659 113.761C35.6688 113.465 35.5717 113.071 35.5717 112.677C35.5717 112.282 35.6688 111.888 35.8631 111.592C36.0573 111.297 36.2516 111.1 36.543 110.903C36.8345 110.706 37.223 110.706 37.6116 110.706C38.0001 110.706 38.2916 110.804 38.583 111.001C38.8744 111.198 39.0687 111.395 39.2629 111.79C39.3601 112.085 39.4572 112.479 39.4572 112.874C39.4572 113.268 39.3601 113.662 39.1658 113.958C38.9715 114.253 38.7772 114.45 38.4858 114.647C38.1944 114.845 37.8059 114.845 37.4173 114.845C37.1259 114.845 36.7373 114.746 36.4459 114.549Z" fill="white"/>
<path d="M44.9941 110.705C45.0913 110.804 45.0913 110.902 45.0913 111.001L45.2855 114.253C45.2855 114.352 45.2855 114.45 45.1884 114.549C45.0913 114.647 44.9941 114.647 44.897 114.647C44.7998 114.647 44.7027 114.647 44.6056 114.549C44.5084 114.45 44.5084 114.352 44.5084 114.253L44.4113 112.282L43.7313 113.859C43.7313 113.957 43.6342 114.056 43.537 114.056C43.4399 114.056 43.4399 114.155 43.3428 114.155C43.2456 114.155 43.1485 114.155 43.1485 114.056C43.0513 114.056 43.0513 113.957 42.9542 113.859L42.0799 112.381L42.1771 114.352C42.1771 114.45 42.1771 114.549 42.0799 114.647C41.9828 114.746 41.8857 114.746 41.7885 114.746C41.6914 114.746 41.5942 114.746 41.4971 114.647C41.4 114.549 41.4 114.45 41.4 114.352L41.2057 111.1C41.2057 111.001 41.2057 110.902 41.3028 110.804C41.4 110.705 41.4971 110.705 41.5942 110.705C41.7885 110.705 41.8857 110.804 41.9828 111.001L43.2456 113.071L44.217 110.804C44.3141 110.607 44.4113 110.508 44.6056 110.508C44.7998 110.607 44.897 110.705 44.9941 110.705Z" fill="white"/>
<path d="M47.5198 114.253C47.4227 114.155 47.4227 114.056 47.3255 113.958L46.8398 110.804C46.8398 110.705 46.8398 110.607 46.937 110.508C47.0341 110.41 47.1313 110.41 47.2284 110.311L49.1712 110.016C49.4626 110.016 49.5597 110.016 49.6569 110.311C49.6569 110.508 49.5597 110.705 49.2683 110.705L47.7141 111.001L47.9084 111.888L49.2683 111.691C49.5597 111.691 49.6569 111.691 49.754 111.987C49.754 112.184 49.6569 112.381 49.3655 112.381L48.0055 112.578L48.1998 113.563L49.754 113.268C50.0454 113.268 50.1426 113.268 50.2397 113.563C50.2397 113.76 50.1426 113.958 49.8512 113.958L47.9084 114.253C47.7141 114.352 47.617 114.253 47.5198 114.253Z" fill="white"/>
<path d="M52.5709 113.366C52.2795 113.366 52.0852 113.366 51.891 113.268C51.7938 113.268 51.7938 113.169 51.6967 113.169C51.6967 113.169 51.5995 113.071 51.5995 112.972C51.5995 112.873 51.5995 112.775 51.5995 112.676C51.5995 112.578 51.6967 112.578 51.7938 112.479H51.891C51.891 112.479 51.9881 112.479 52.0852 112.479C52.2795 112.578 52.4738 112.578 52.5709 112.578C52.7652 112.578 52.9595 112.578 53.1538 112.479C53.3481 112.381 53.5423 112.282 53.6395 112.184C53.7366 112.085 53.7366 111.987 53.7366 111.789C53.7366 111.691 53.6395 111.592 53.4452 111.592C53.3481 111.592 53.0566 111.494 52.7652 111.592C52.3767 111.592 52.0852 111.592 51.891 111.592C51.6967 111.592 51.5024 111.494 51.4053 111.297C51.3081 111.198 51.211 111.001 51.1139 110.804C51.0167 110.607 51.1139 110.311 51.1139 110.114C51.211 109.917 51.3081 109.72 51.5995 109.523C51.7938 109.326 52.0852 109.227 52.3767 109.129C52.8624 109.03 53.3481 109.03 53.7366 109.227C53.8337 109.227 53.8338 109.326 53.9309 109.326C53.9309 109.326 54.028 109.424 54.028 109.523C54.028 109.621 54.028 109.72 54.028 109.819C54.028 109.917 53.9309 109.917 53.8337 110.016H53.7366C53.7366 110.016 53.6395 110.016 53.5423 110.016C53.3481 109.917 53.2509 109.917 53.0566 109.917C52.9595 109.917 52.7652 109.917 52.5709 110.016C52.3767 110.114 52.1824 110.114 52.0852 110.311C51.9881 110.41 51.9881 110.607 51.9881 110.705C51.9881 110.804 52.0852 110.903 52.0852 110.903C52.1824 110.903 52.2795 111.001 52.3767 111.001C52.4738 111.001 52.6681 111.001 52.8624 111.001C53.348 111.001 53.7366 111.001 54.028 111.198C54.3194 111.297 54.4166 111.494 54.5137 111.789C54.6109 111.987 54.5137 112.282 54.5137 112.479C54.5137 112.676 54.3194 112.873 54.1252 113.071C53.9309 113.268 53.6395 113.366 53.348 113.465C53.0566 113.268 52.8624 113.366 52.5709 113.366Z" fill="white"/>
<path d="M57.6222 111.789C57.5251 111.789 57.4279 111.691 57.4279 111.494L56.4566 108.833L55.5823 109.129C55.2909 109.227 55.1937 109.129 55.0966 108.932C54.9995 108.734 55.0966 108.537 55.388 108.439L57.9136 107.552C58.2051 107.453 58.3022 107.552 58.3993 107.749C58.4965 107.946 58.3993 108.143 58.1079 108.242L57.2337 108.537L58.2051 111.198C58.2051 111.297 58.2051 111.395 58.2051 111.494C58.2051 111.592 58.1079 111.691 57.9136 111.691C57.9136 111.888 57.7194 111.789 57.6222 111.789Z" fill="white"/>
<path d="M61.1193 108.833L62.2849 108.242L61.1193 107.158V108.833ZM64.0334 108.833C64.0334 108.932 64.0334 109.03 64.0334 109.129C64.0334 109.228 63.9363 109.326 63.8392 109.326C63.742 109.326 63.742 109.326 63.6449 109.326C63.5478 109.326 63.5478 109.326 63.4506 109.228L62.8678 108.735L61.1193 109.523V110.213C61.1193 110.312 61.1193 110.41 61.0221 110.41C61.0221 110.509 60.925 110.509 60.8279 110.509C60.7307 110.509 60.6336 110.607 60.5364 110.509C60.4393 110.509 60.3422 110.41 60.3422 110.312C60.3422 110.312 60.3422 110.213 60.3422 110.114L60.4393 106.567C60.4393 106.468 60.4393 106.37 60.5364 106.271C60.6336 106.173 60.6336 106.173 60.7307 106.074C60.8279 106.074 60.925 105.976 61.0221 106.074C61.1193 106.074 61.2164 106.074 61.3136 106.173L64.0334 108.439C63.9363 108.735 63.9363 108.833 64.0334 108.833Z" fill="white"/>
<path d="M65.782 103.61C65.8791 103.511 65.9763 103.511 66.0734 103.61C66.1705 103.61 66.2677 103.709 66.3648 103.807C66.3648 103.906 66.4619 104.004 66.3648 104.103L65.9762 105.975L66.6562 107.256C66.7534 107.355 66.7534 107.453 66.7534 107.65C66.7534 107.749 66.6562 107.848 66.5591 107.946C66.462 108.045 66.3648 108.045 66.2677 108.045C66.1705 108.045 66.0734 107.946 65.9762 107.848L65.2963 106.566L63.5478 105.877C63.4506 105.877 63.3535 105.778 63.3535 105.68C63.2564 105.581 63.2564 105.482 63.3535 105.384C63.3535 105.285 63.4506 105.187 63.5478 105.187C63.6449 105.088 63.7421 105.088 63.8392 105.187L65.3934 105.778L65.6848 104.103C65.5877 103.807 65.6848 103.709 65.782 103.61Z" fill="white"/>
<path d="M70.8332 103.216C70.6389 103.019 70.7361 102.821 70.9303 102.624L71.8046 102.033C71.9017 101.935 71.9989 101.935 72.1931 101.935C72.2903 101.935 72.3874 102.033 72.4846 102.132C72.5817 102.23 72.5817 102.329 72.5817 102.427C72.5817 102.526 72.4846 102.624 72.3874 102.723L71.5132 103.314C71.2218 103.511 71.0275 103.413 70.8332 103.216Z" fill="white"/>
</g>
<defs>
<clipPath id="clip0_1197_33243">
<rect width="80.4894" height="117" fill="white" transform="translate(0.255371)"/>
</clipPath>
</defs>
</svg>
