<svg width="113" height="164" viewBox="0 0 113 164" fill="none" xmlns="http://www.w3.org/2000/svg">
<g clip-path="url(#clip0_1197_33575)">
<path d="M24.0411 50.1948C14.5098 50.1948 6.74866 58.0685 6.74866 67.7379C6.74866 77.4073 14.5098 85.2809 24.0411 85.2809C33.5723 85.2809 41.3335 77.4073 41.3335 67.7379C41.3335 58.0685 33.5723 50.1948 24.0411 50.1948Z" fill="#F68B6D"/>
<path d="M24.041 116.776H16.1436C15.7351 116.776 15.3267 116.362 15.3267 115.947V91.7736C15.3267 91.3592 15.7351 90.9448 16.1436 90.9448C16.5521 90.9448 16.9606 91.3592 16.9606 91.7736V115.118H24.041C24.4495 115.118 24.8579 115.533 24.8579 115.947C24.8579 116.5 24.5856 116.776 24.041 116.776Z" fill="#404D56"/>
<path d="M95.5254 116.776H87.4919C87.0834 116.776 86.6749 116.362 86.6749 115.947C86.6749 115.533 87.0834 115.118 87.4919 115.118H94.5723V91.7736C94.5723 91.3592 94.9807 90.9448 95.3892 90.9448C95.7977 90.9448 96.2062 91.3592 96.2062 91.7736V115.947C96.3423 116.5 95.9339 116.776 95.5254 116.776Z" fill="#404D56"/>
<path d="M79.5946 116.776H31.9383C31.5298 116.776 31.1213 116.362 31.1213 115.947V83.7619C31.1213 83.3475 31.5298 82.9331 31.9383 82.9331C32.3468 82.9331 32.7553 83.3475 32.7553 83.7619V115.118H78.6415V83.7619C78.6415 83.3475 79.0499 82.9331 79.4584 82.9331C79.8669 82.9331 80.2754 83.3475 80.2754 83.7619V115.947C80.4115 116.5 80.1392 116.776 79.5946 116.776Z" fill="#404D56"/>
<path d="M111.32 84.5903C111.184 84.5903 111.048 84.5903 110.912 84.4521L87.3559 68.5667H24.3134L0.757508 84.4521C0.349025 84.7284 -0.195619 84.5903 -0.467941 84.1759C-0.740263 83.7615 -0.604103 83.2089 -0.19562 82.9327L23.6326 66.7709C23.7687 66.6328 23.9049 66.6328 24.041 66.6328H87.4921C87.6282 66.6328 87.7644 66.6328 87.9006 66.7709L111.729 82.9327C112.137 83.2089 112.273 83.7615 112.001 84.1759C111.865 84.4521 111.593 84.5903 111.32 84.5903Z" fill="#404D56"/>
<path d="M48.6862 115.118H62.8469V92.7406H48.6862V115.118ZM63.8 116.776H47.8692C47.4607 116.776 47.0522 116.362 47.0522 115.947V91.7736C47.0522 91.3592 47.4607 90.9448 47.8692 90.9448H63.8C64.2085 90.9448 64.617 91.3592 64.617 91.7736V115.947C64.617 116.5 64.2085 116.776 63.8 116.776Z" fill="#404D56"/>
<path d="M10.5612 22.0152C10.8335 22.0152 11.1058 22.1534 11.3781 22.4296L16.8246 29.0601C17.0969 29.3363 17.0969 29.6126 17.0969 29.8889C17.0969 30.1651 16.9607 30.4414 16.6884 30.7177C16.4161 30.9939 16.1438 30.994 15.7353 30.994L7.70179 29.1982L11.3781 33.6185C11.6505 33.8948 11.6504 34.171 11.6504 34.4473C11.6504 34.7236 11.5143 34.9998 11.242 35.2761C10.9696 35.5524 10.6973 35.5524 10.425 35.5524C10.1527 35.5524 9.88036 35.4142 9.60804 35.138L4.1616 28.5075C3.88928 28.2313 3.88928 27.955 3.88928 27.6787C3.88928 27.4025 4.02544 27.1262 4.29777 26.8499C4.57009 26.5737 4.84241 26.5737 5.25089 26.5737L13.2844 28.2313L9.60804 23.811C9.33571 23.5347 9.33572 23.2584 9.33572 22.9822C9.33572 22.7059 9.47188 22.4296 9.7442 22.1534C9.88036 22.0152 10.1527 21.8771 10.5612 22.0152Z" fill="#404D56"/>
<path d="M23.0879 14.2801C23.3602 14.4183 23.6325 14.5564 23.7687 14.8327L27.8535 22.4301C27.9897 22.7063 28.1259 22.9826 27.9897 23.397C27.8535 23.6733 27.7174 23.9496 27.4451 24.0877C27.1727 24.2258 26.9004 24.364 26.4919 24.2258C26.2196 24.0877 25.9473 23.9496 25.8111 23.6733L24.1772 20.6343L19.82 22.9826L21.454 26.0216C21.5901 26.2978 21.7263 26.5741 21.5901 26.9885C21.454 27.2648 21.3178 27.541 21.0455 27.6792C20.7732 27.8173 20.5008 27.9555 20.0924 27.8173C19.82 27.6792 19.5477 27.541 19.4115 27.2648L15.3267 19.6674C15.1906 19.3911 15.0544 19.1148 15.1906 18.7004C15.3267 18.4242 15.4629 18.1479 15.7352 18.0098C16.0075 17.8716 16.2798 17.7335 16.6883 17.8716C16.9606 18.0098 17.233 18.1479 17.3691 18.4242L18.8669 21.325L23.2241 18.9767L21.7263 15.9378C21.5901 15.6615 21.454 15.3852 21.5901 14.9708C21.7263 14.6945 21.8624 14.4183 22.1348 14.2801C22.5433 14.2801 22.8156 14.142 23.0879 14.2801Z" fill="#404D56"/>
<path d="M32.7553 17.1808L36.1593 16.0758L33.2999 12.7605L32.7553 17.1808ZM40.5165 18.1478C40.6526 18.424 40.5165 18.7003 40.3803 18.9766C40.2441 19.2528 39.9718 19.391 39.6995 19.5291C39.5633 19.5291 39.291 19.5291 39.1548 19.5291C39.0187 19.5291 38.7464 19.391 38.6102 19.2528L37.2486 17.7334L32.3468 19.391L32.0745 21.3249C32.0745 21.6011 31.9383 21.7393 31.8022 21.8774C31.666 22.0155 31.5298 22.1537 31.3937 22.1537C31.1213 22.2918 30.849 22.2918 30.5767 22.1537C30.3044 22.0155 30.1682 21.8774 30.0321 21.6011C30.0321 21.463 30.0321 21.3249 30.0321 21.0486L31.2575 11.5173C31.2575 11.241 31.3937 10.9648 31.5298 10.8266C31.666 10.6885 31.9383 10.5504 32.2106 10.4122C32.483 10.2741 32.7553 10.2741 33.0276 10.4122C33.2999 10.4122 33.4361 10.5504 33.7084 10.8266L40.2441 17.8715C40.3803 17.8715 40.5165 18.0096 40.5165 18.1478ZM30.0321 9.30716C29.6236 9.30716 29.3512 9.0309 29.2151 8.75463C29.2151 8.61649 29.2151 8.34022 29.2151 8.20209C29.3512 7.92582 29.4874 7.78769 29.7597 7.78769C30.0321 7.64955 30.3044 7.78769 30.5767 7.92582L32.2106 8.75463C32.3468 8.75463 32.483 8.89276 32.483 9.0309C32.483 9.16903 32.483 9.30717 32.483 9.4453C32.3468 9.58343 32.3468 9.58343 32.2106 9.72157C32.0745 9.72157 32.0745 9.72157 31.9383 9.72157L30.0321 9.30716Z" fill="#404D56"/>
<path d="M52.4985 15.6614C54.8133 15.5233 55.9025 14.4182 55.7664 12.0699C55.6302 9.72163 54.5409 8.61655 52.2262 8.75468H50.5923L50.8646 15.6614H52.4985ZM48.9583 17.4572C48.8222 17.319 48.686 17.0428 48.686 16.6284L48.4137 8.06401C48.4137 7.64961 48.5499 7.37334 48.686 7.2352C48.8222 7.09707 49.0945 6.95894 49.503 6.95894L52.4985 6.8208C53.5878 6.8208 54.6771 6.95894 55.4941 7.37334C56.311 7.78774 56.9918 8.34028 57.5365 9.16909C57.945 9.99789 58.2173 10.9648 58.3534 12.0699C58.3534 13.175 58.2173 14.1419 57.8088 14.9707C57.4003 15.7995 56.7195 16.4902 55.9025 16.9046C55.0856 17.319 54.1325 17.5953 52.907 17.5953L49.9115 17.7334C49.3668 17.7334 49.0945 17.5953 48.9583 17.4572Z" fill="#404D56"/>
<path d="M61.6214 17.5952C61.4852 17.3189 61.349 17.0427 61.349 16.6283L62.166 8.06394C62.166 7.64954 62.3022 7.37327 62.5745 7.23513C62.8468 7.097 63.1191 6.95886 63.5276 6.95886C63.9361 6.95886 64.2084 7.097 64.3446 7.37327C64.4808 7.64954 64.6169 7.9258 64.6169 8.20207L63.8 16.7664C63.8 17.1808 63.6638 17.4571 63.3915 17.5952C63.1191 17.7333 62.8468 17.8715 62.4383 17.8715C62.0299 17.8715 61.7575 17.7333 61.6214 17.5952ZM61.7575 5.16312C61.3491 4.88685 61.2129 4.61058 61.2129 4.33431C61.2129 4.05805 61.349 3.91991 61.4852 3.78178C61.6214 3.64364 61.8937 3.50551 62.0299 3.64364C62.3022 3.64364 62.5745 3.78178 62.7107 4.05805L63.9361 5.43939C64.0723 5.57752 64.0723 5.71566 64.0723 5.85379C64.0723 5.99193 63.9361 6.13006 63.9361 6.13006C63.7999 6.26819 63.6638 6.26819 63.5276 6.26819C63.3915 6.26819 63.3915 6.26819 63.2553 6.13006L61.7575 5.16312Z" fill="#404D56"/>
<path d="M73.876 19.9438C73.3313 19.5294 72.7867 19.115 72.5143 18.7006C72.3782 18.5624 72.3782 18.4243 72.3782 18.2862C72.3782 18.148 72.3782 18.0099 72.3782 17.7336C72.5143 17.4574 72.6505 17.3192 72.7867 17.1811C73.059 17.0429 73.1951 17.0429 73.3313 17.0429C73.4675 17.0429 73.4675 17.1811 73.6036 17.1811C73.7398 17.1811 73.7398 17.3192 73.876 17.4574C74.1483 17.8718 74.5568 18.148 74.9652 18.4243C75.3737 18.7006 75.7822 18.8387 76.3268 19.115C77.0076 19.3912 77.4161 19.3912 77.8246 19.2531C78.2331 19.115 78.5054 18.8387 78.6416 18.5624C78.7777 18.2862 78.6416 18.0099 78.3693 17.7336C78.0969 17.4574 77.5523 17.0429 76.8715 16.6285C76.0545 16.2141 75.3737 15.6616 74.9652 15.2472C74.5568 14.8328 74.2844 14.4184 74.1483 13.8659C74.0121 13.4514 74.0121 12.8989 74.2844 12.3464C74.4206 11.7938 74.8291 11.2413 75.3737 10.8269C75.9184 10.4125 76.463 10.2744 77.1438 10.1362C77.8246 9.99809 78.6416 10.1362 79.3224 10.4125C80.684 10.8269 81.6371 11.5176 82.3179 12.6226C82.4541 12.7608 82.4541 12.8989 82.4541 13.037C82.4541 13.1752 82.4541 13.3133 82.4541 13.4514C82.3179 13.7277 82.1818 13.8659 82.0456 14.004C81.7733 14.1421 81.6371 14.1421 81.501 14.1421C81.3648 14.1421 81.3648 14.004 81.2286 14.004C81.0925 14.004 81.0925 13.8659 80.9563 13.7277C80.684 13.3133 80.2755 13.037 80.0032 12.7608C79.7309 12.4845 79.3224 12.3464 78.7777 12.2082C78.2331 12.0701 77.6885 11.932 77.28 12.0701C76.8715 12.2082 76.5992 12.4845 76.463 12.8989C76.3268 13.1752 76.3268 13.3133 76.463 13.5896C76.5992 13.7277 76.7353 14.004 77.0076 14.1421C77.28 14.4184 77.6885 14.5565 78.2331 14.9709C79.4585 15.6616 80.2755 16.3523 80.684 17.0429C81.0925 17.7336 81.2286 18.4243 80.9563 19.2531C80.8202 19.9438 80.4117 20.3582 79.867 20.7726C79.3224 21.187 78.7777 21.3251 78.0969 21.4632C77.4161 21.4632 76.5992 21.4633 75.7822 21.187C75.1014 20.6344 74.4206 20.3582 73.876 19.9438Z" fill="#404D56"/>
<path d="M91.9852 15.1089C91.8491 15.1089 91.7129 14.9708 91.7129 14.8326C91.7129 14.6945 91.7129 14.5564 91.7129 14.4182C91.7129 14.2801 91.8491 14.2801 92.1214 14.142L93.8915 13.5894C94.1638 13.4513 94.4361 13.4513 94.7084 13.5894C94.8446 13.7276 94.9808 13.8657 95.1169 14.142C95.2531 14.4182 95.1169 14.5564 95.1169 14.8326C94.9808 14.9708 94.9808 15.1089 94.8446 15.1089C94.7084 15.2471 94.4361 15.247 94.3 15.247H92.3937C92.1214 15.247 91.9852 15.1089 91.9852 15.1089ZM86.9473 20.9105L90.079 22.5682L90.3513 18.1479L86.9473 20.9105ZM91.7129 27.1266C91.5768 27.4029 91.3044 27.541 91.0321 27.541C90.7598 27.541 90.4875 27.541 90.2151 27.4029C90.079 27.2647 89.9428 27.1266 89.8067 26.9885C89.8067 26.9885 89.8067 26.7122 89.8067 26.4359L89.9428 24.502L85.4495 22.0156L83.9517 23.2588C83.8156 23.397 83.5433 23.5351 83.4071 23.5351C83.2709 23.5351 82.9986 23.5351 82.8625 23.397C82.5901 23.2588 82.454 22.9826 82.3178 22.7063C82.1817 22.43 82.1817 22.1538 82.3178 21.8775C82.3178 21.7394 82.454 21.6012 82.5901 21.4631L90.2151 15.7996C90.4875 15.6615 90.6236 15.5233 90.896 15.5233C91.1683 15.5233 91.4406 15.5233 91.5768 15.6615C91.8491 15.7996 91.9852 15.9377 92.1214 16.214C92.2575 16.4903 92.2576 16.6284 92.2576 16.9047L91.8491 26.574C91.8491 26.8503 91.8491 26.9885 91.7129 27.1266Z" fill="#404D56"/>
<path d="M94.7084 29.1983C94.5722 28.0932 94.9807 26.9882 95.9338 25.745L99.2017 21.6009C99.474 21.3247 99.7464 21.1865 100.019 21.1865C100.291 21.1865 100.563 21.1865 100.836 21.4628C101.108 21.7391 101.244 22.0153 101.244 22.2916C101.244 22.5679 101.108 22.8441 100.972 23.1204L97.7039 27.2644C97.1593 27.9551 96.887 28.5077 96.887 29.1983C96.887 29.7509 97.1593 30.3034 97.8401 30.8559C98.3847 31.2703 98.9294 31.5466 99.6102 31.4085C100.155 31.2703 100.699 30.8559 101.244 30.3034L104.512 26.1594C104.784 25.8831 105.057 25.745 105.329 25.745C105.601 25.745 105.874 25.745 106.146 26.0212C106.418 26.2975 106.554 26.5738 106.554 26.85C106.554 27.1263 106.554 27.4026 106.282 27.6788L103.014 31.8229C102.061 32.928 101.108 33.6186 100.019 33.7568C98.9294 33.8949 97.8401 33.4805 96.6146 32.5136C95.3892 31.4085 94.8446 30.3034 94.7084 29.1983Z" fill="#404D56"/>
<path d="M10.0164 143.021C10.2887 142.745 10.5611 142.745 10.8334 143.021L12.0588 143.988C12.195 144.126 12.3312 144.264 12.3312 144.403C12.3312 144.541 12.3312 144.679 12.195 144.817C12.0588 144.955 11.9227 145.093 11.7865 145.093C11.6504 145.093 11.5142 145.093 11.2419 144.955L10.0164 143.988C9.88027 143.574 9.88027 143.297 10.0164 143.021Z" fill="#404D56"/>
<path d="M16.8245 150.066C16.8245 149.928 16.8245 149.79 16.9606 149.652L19.1392 145.784C19.2754 145.646 19.4115 145.508 19.4115 145.508C19.5477 145.508 19.6838 145.508 19.82 145.646L22.2709 147.027C22.5432 147.165 22.6794 147.442 22.5432 147.718C22.4071 147.994 22.1347 147.994 21.8624 147.856L19.9562 146.751L19.2754 147.856L21.0455 148.823C21.3178 148.961 21.4539 149.237 21.3178 149.514C21.1816 149.79 20.9093 149.79 20.637 149.652L18.8669 148.685L18.1861 149.928L20.0923 151.033C20.3646 151.171 20.5008 151.448 20.3646 151.724C20.2285 152 19.9562 152 19.6838 151.862L17.2329 150.481C16.9606 150.343 16.8245 150.204 16.8245 150.066Z" fill="#404D56"/>
<path d="M23.4964 153.519C23.2241 153.105 23.0879 152.691 23.0879 152.276C23.0879 151.724 23.2241 151.309 23.3602 150.757C23.6325 150.204 23.9049 149.79 24.3133 149.513C24.7218 149.237 25.1303 149.099 25.5388 148.961C25.9473 148.961 26.4919 148.961 27.0366 149.237C27.7174 149.513 28.1258 149.928 28.3982 150.48C28.3982 150.619 28.5343 150.619 28.5343 150.757C28.5343 150.895 28.5343 150.895 28.5343 151.033C28.5343 151.171 28.3982 151.309 28.262 151.309C28.1258 151.309 27.9897 151.309 27.9897 151.309C27.9897 151.309 27.8535 151.309 27.8535 151.171C27.8535 151.033 27.7174 151.033 27.7174 151.033C27.5812 150.757 27.445 150.619 27.3089 150.48C27.1727 150.342 27.0366 150.204 26.7642 150.204C26.3557 149.928 25.9473 149.928 25.5388 150.204C25.1303 150.342 24.858 150.757 24.5857 151.309C24.041 152.414 24.3133 153.243 25.1303 153.658C25.2665 153.796 25.5388 153.796 25.6749 153.796C25.8111 153.796 26.0834 153.796 26.3558 153.796C26.4919 153.796 26.4919 153.796 26.6281 153.796C26.7642 153.796 26.7642 153.796 26.7642 153.796C26.9004 153.796 26.9004 153.934 26.9004 154.072C26.9004 154.21 26.9004 154.348 26.9004 154.486C26.9004 154.624 26.7642 154.624 26.7642 154.624C26.7642 154.624 26.6281 154.763 26.4919 154.763C25.9473 154.901 25.2665 154.763 24.5857 154.486C24.1772 154.21 23.7687 153.934 23.4964 153.519Z" fill="#404D56"/>
<path d="M32.7554 156.006C33.1639 155.73 33.4362 155.315 33.5724 154.763C33.7085 154.21 33.8447 153.657 33.7085 153.243C33.5724 152.829 33.3001 152.552 32.8916 152.414C32.4831 152.276 32.0746 152.276 31.6661 152.552C31.2576 152.829 30.9853 153.243 30.8492 153.796C30.713 154.348 30.5768 154.901 30.713 155.315C30.8492 155.73 31.1215 156.006 31.53 156.144C31.9385 156.282 32.3469 156.282 32.7554 156.006ZM30.0322 156.282C29.7599 155.868 29.4876 155.453 29.4876 155.039C29.3514 154.624 29.4876 154.072 29.6237 153.519C29.7599 152.967 30.0322 152.552 30.4407 152.138C30.8492 151.862 31.1215 151.585 31.6661 151.447C32.0746 151.309 32.6193 151.447 33.1639 151.585C33.7085 151.724 34.117 152 34.3893 152.414C34.6617 152.829 34.934 153.243 34.934 153.658C35.0702 154.072 34.934 154.624 34.7978 155.177C34.6617 155.73 34.3893 156.144 33.9809 156.558C33.5724 156.835 33.3001 157.111 32.7554 157.249C32.3469 157.387 31.8023 157.249 31.2576 157.111C30.713 156.835 30.3045 156.558 30.0322 156.282Z" fill="#404D56"/>
<path d="M36.8402 156.42C36.9764 156.144 37.1125 156.006 37.521 156.144L39.0188 156.558C39.4273 156.697 39.5634 156.835 39.4273 157.111C39.2911 157.387 39.1549 157.525 38.7465 157.387L37.2487 156.973C36.9764 156.973 36.8402 156.835 36.8402 156.42Z" fill="#404D56"/>
<path d="M47.3246 155.039C47.4608 155.177 47.4608 155.315 47.4608 155.453L46.78 159.873C46.78 160.012 46.6438 160.15 46.5077 160.288C46.3715 160.426 46.2353 160.426 46.0992 160.426C45.963 160.426 45.8268 160.288 45.6907 160.15C45.5545 160.012 45.5545 159.873 45.5545 159.735L45.8268 157.94L43.3759 157.525L43.1036 159.321C43.1036 159.459 42.9675 159.597 42.8313 159.735C42.6951 159.873 42.559 159.873 42.4228 159.873C42.2867 159.873 42.1505 159.735 42.0143 159.597C41.8782 159.459 41.8782 159.321 41.8782 159.183L42.559 154.763C42.559 154.624 42.6951 154.486 42.8313 154.348C42.9675 154.21 43.1036 154.21 43.2398 154.21C43.3759 154.21 43.5121 154.348 43.6483 154.486C43.7844 154.624 43.7844 154.762 43.7844 154.901L43.5121 156.558L45.963 156.973L46.2353 155.315C46.2353 155.177 46.3715 155.039 46.5077 154.901C46.6438 154.762 46.78 154.763 46.9161 154.763C47.0523 154.901 47.1885 154.901 47.3246 155.039Z" fill="#404D56"/>
<path d="M53.3157 159.597C53.588 159.321 53.7242 158.768 53.7242 158.216C53.7242 157.663 53.588 157.111 53.4518 156.834C53.1795 156.558 52.9072 156.282 52.3625 156.282C51.9541 156.282 51.5456 156.42 51.2733 156.696C51.0009 156.973 50.8648 157.525 50.8648 158.078C50.8648 158.63 51.0009 159.183 51.1371 159.459C51.4094 159.735 51.6817 160.011 52.2264 160.011C52.6349 160.011 53.0433 159.873 53.3157 159.597ZM50.7286 160.564C50.3201 160.288 50.0478 160.011 49.7755 159.459C49.6393 159.045 49.5032 158.492 49.5032 157.939C49.5032 157.387 49.6393 156.834 49.9116 156.42C50.184 156.006 50.4563 155.729 50.8648 155.453C51.2733 155.177 51.8179 155.177 52.3625 155.177C52.9072 155.177 53.3157 155.315 53.7242 155.591C54.1326 155.867 54.405 156.144 54.6773 156.696C54.8134 157.111 54.9496 157.663 54.9496 158.216C54.9496 158.768 54.8134 159.321 54.5411 159.735C54.2688 160.15 53.9965 160.426 53.588 160.702C53.1795 160.978 52.6349 160.978 52.0902 160.978C51.6817 160.978 51.1371 160.84 50.7286 160.564Z" fill="#404D56"/>
<path d="M62.7107 155.177C62.8468 155.315 62.8468 155.453 62.8468 155.592L63.1192 160.15C63.1192 160.288 63.1192 160.426 62.983 160.564C62.8468 160.703 62.7107 160.703 62.5745 160.703C62.4384 160.703 62.3022 160.703 62.166 160.564C62.0299 160.426 62.0299 160.288 62.0299 160.15L61.8937 157.387L60.9406 159.597C60.9406 159.736 60.8044 159.874 60.6683 159.874C60.5321 159.874 60.5321 160.012 60.3959 160.012C60.2598 160.012 60.1236 160.012 60.1236 159.874C59.9875 159.874 59.9875 159.736 59.8513 159.597L58.6258 157.525L58.762 160.288C58.762 160.426 58.762 160.564 58.6258 160.703C58.4897 160.841 58.3535 160.841 58.2174 160.841C58.0812 160.841 57.945 160.841 57.8089 160.703C57.6727 160.564 57.6727 160.426 57.6727 160.288L57.4004 155.73C57.4004 155.592 57.4004 155.453 57.5366 155.315C57.6727 155.177 57.8089 155.177 57.945 155.177C58.2174 155.177 58.3535 155.315 58.4897 155.592L60.2598 158.492L61.6214 155.315C61.7576 155.039 61.8937 154.901 62.166 154.901C62.4383 155.039 62.5745 155.177 62.7107 155.177Z" fill="#404D56"/>
<path d="M66.2509 160.15C66.1147 160.012 66.1147 159.873 65.9785 159.735L65.2977 155.315C65.2977 155.177 65.2977 155.039 65.4339 154.901C65.57 154.762 65.7062 154.762 65.8424 154.624L68.5656 154.21C68.9741 154.21 69.1102 154.21 69.2464 154.624C69.2464 154.901 69.1102 155.177 68.7018 155.177L66.5232 155.591L66.7955 156.835L68.7018 156.558C69.1102 156.558 69.2464 156.558 69.3826 156.973C69.3826 157.249 69.2464 157.525 68.8379 157.525L66.9317 157.801L67.204 159.183L69.3826 158.768C69.791 158.768 69.9272 158.768 70.0634 159.183C70.0634 159.459 69.9272 159.735 69.5187 159.735L66.7955 160.15C66.5232 160.288 66.387 160.15 66.2509 160.15Z" fill="#404D56"/>
<path d="M73.3312 158.906C72.9227 158.906 72.6504 158.906 72.3781 158.768C72.2419 158.768 72.2419 158.63 72.1057 158.63C72.1057 158.63 71.9696 158.492 71.9696 158.354C71.9696 158.216 71.9696 158.078 71.9696 157.94C71.9696 157.801 72.1057 157.801 72.2419 157.663H72.3781C72.3781 157.663 72.5142 157.663 72.6504 157.663C72.9227 157.801 73.195 157.801 73.3312 157.801C73.6035 157.801 73.8758 157.801 74.1482 157.663C74.4205 157.525 74.6928 157.387 74.829 157.249C74.9651 157.111 74.9651 156.973 74.9651 156.696C74.9651 156.558 74.829 156.42 74.5566 156.42C74.4205 156.42 74.012 156.282 73.6035 156.42C73.0589 156.42 72.6504 156.42 72.3781 156.42C72.1057 156.42 71.8334 156.282 71.6973 156.006C71.5611 155.868 71.4249 155.591 71.2888 155.315C71.1526 155.039 71.2888 154.624 71.2888 154.348C71.4249 154.072 71.5611 153.796 71.9696 153.519C72.2419 153.243 72.6504 153.105 73.0589 152.967C73.7397 152.829 74.4205 152.829 74.9651 153.105C75.1013 153.105 75.1013 153.243 75.2375 153.243C75.2375 153.243 75.3736 153.381 75.3736 153.519C75.3736 153.657 75.3736 153.796 75.3736 153.934C75.3736 154.072 75.2374 154.072 75.1013 154.21H74.9651C74.9651 154.21 74.829 154.21 74.6928 154.21C74.4205 154.072 74.2843 154.072 74.012 154.072C73.8758 154.072 73.6035 154.072 73.3312 154.21C73.0589 154.348 72.7866 154.348 72.6504 154.624C72.5142 154.762 72.5142 155.039 72.5142 155.177C72.5142 155.315 72.6504 155.453 72.6504 155.453C72.7866 155.453 72.9227 155.591 73.0589 155.591C73.195 155.591 73.4674 155.591 73.7397 155.591C74.4205 155.591 74.9651 155.591 75.3736 155.868C75.7821 156.006 75.9183 156.282 76.0544 156.696C76.1906 156.973 76.0544 157.387 76.0544 157.663C76.0544 157.94 75.7821 158.216 75.5098 158.492C75.2374 158.768 74.829 158.906 74.4205 159.045C74.012 158.768 73.7397 158.906 73.3312 158.906Z" fill="#404D56"/>
<path d="M80.4115 156.696C80.2754 156.696 80.1392 156.558 80.1392 156.282L78.7776 152.552L77.5522 152.966C77.1437 153.105 77.0075 152.966 76.8714 152.69C76.7352 152.414 76.8714 152.138 77.2799 152L80.82 150.756C81.2285 150.618 81.3647 150.756 81.5008 151.033C81.637 151.309 81.5008 151.585 81.0924 151.723L79.8669 152.138L81.2285 155.867C81.2285 156.005 81.2285 156.144 81.2285 156.282C81.2285 156.42 81.0924 156.558 80.82 156.558C80.82 156.834 80.5477 156.696 80.4115 156.696Z" fill="#404D56"/>
<path d="M85.3135 152.552L86.9475 151.723L85.3135 150.204V152.552ZM89.3984 152.552C89.3984 152.69 89.3984 152.828 89.3984 152.967C89.3984 153.105 89.2622 153.243 89.126 153.243C88.9899 153.243 88.9899 153.243 88.8537 153.243C88.7176 153.243 88.7175 153.243 88.5814 153.105L87.7644 152.414L85.3135 153.519V154.486C85.3135 154.624 85.3135 154.762 85.1774 154.762C85.1774 154.9 85.0412 154.9 84.905 154.9C84.7689 154.9 84.6327 155.039 84.4966 154.9C84.3604 154.9 84.2242 154.762 84.2242 154.624C84.2242 154.624 84.2242 154.486 84.2242 154.348L84.3604 149.375C84.3604 149.237 84.3604 149.099 84.4966 148.961C84.6327 148.823 84.6327 148.823 84.7689 148.684C84.905 148.684 85.0412 148.546 85.1774 148.684C85.3135 148.684 85.4497 148.684 85.5859 148.823L89.3984 152C89.2622 152.414 89.2622 152.552 89.3984 152.552Z" fill="#404D56"/>
<path d="M91.849 145.231C91.9852 145.093 92.1214 145.093 92.2575 145.231C92.3937 145.231 92.5298 145.369 92.666 145.507C92.666 145.645 92.8022 145.784 92.666 145.922L92.1214 148.546L93.0745 150.342C93.2106 150.48 93.2106 150.618 93.2106 150.895C93.2106 151.033 93.0745 151.171 92.9383 151.309C92.8022 151.447 92.666 151.447 92.5298 151.447C92.3937 151.447 92.2575 151.309 92.1214 151.171L91.1682 149.375L88.7173 148.408C88.5812 148.408 88.445 148.27 88.445 148.132C88.3089 147.994 88.3089 147.856 88.445 147.717C88.445 147.579 88.5812 147.441 88.7173 147.441C88.8535 147.303 88.9897 147.303 89.1258 147.441L91.3044 148.27L91.7129 145.922C91.5767 145.507 91.7129 145.369 91.849 145.231Z" fill="#404D56"/>
<path d="M98.9297 144.679C98.6574 144.402 98.7935 144.126 99.0659 143.85L100.291 143.021C100.427 142.883 100.564 142.883 100.836 142.883C100.972 142.883 101.108 143.021 101.244 143.159C101.381 143.297 101.381 143.435 101.381 143.573C101.381 143.712 101.244 143.85 101.108 143.988L99.8828 144.817C99.4743 145.093 99.202 144.955 98.9297 144.679Z" fill="#404D56"/>
</g>
<defs>
<clipPath id="clip0_1197_33575">
<rect width="112.823" height="164" fill="white"/>
</clipPath>
</defs>
</svg>
