<svg width="24" height="25" viewBox="0 0 24 25" fill="none" xmlns="http://www.w3.org/2000/svg">
<path d="M2 9C2 5.5 4 4 7 4H17C20 4 22 5.5 22 9V12" stroke="white" stroke-width="1.5" stroke-miterlimit="10" stroke-linecap="round" stroke-linejoin="round"/>
<path d="M12 20.9997H7C4 20.9997 2 19.4997 2 15.9997V12.9697" stroke="white" stroke-width="1.5" stroke-miterlimit="10" stroke-linecap="round" stroke-linejoin="round"/>
<path d="M17 9.5L13.87 12C12.84 12.82 11.15 12.82 10.12 12L7 9.5" stroke="white" stroke-width="1.5" stroke-miterlimit="10" stroke-linecap="round" stroke-linejoin="round"/>
<path d="M19.21 15.2703L15.6701 18.8103C15.5301 18.9503 15.4 19.2103 15.37 19.4003L15.18 20.7503C15.11 21.2403 15.45 21.5803 15.94 21.5103L17.29 21.3203C17.48 21.2903 17.75 21.1603 17.88 21.0203L21.4201 17.4803C22.0301 16.8703 22.3201 16.1603 21.4201 15.2603C20.5301 14.3703 19.82 14.6603 19.21 15.2703Z" stroke="white" stroke-width="1.5" stroke-miterlimit="10" stroke-linecap="round" stroke-linejoin="round"/>
<path d="M18.7001 15.7803C19.0001 16.8603 19.8401 17.7003 20.9201 18.0003" stroke="white" stroke-width="1.5" stroke-miterlimit="10" stroke-linecap="round" stroke-linejoin="round"/>
</svg>
