<svg width="28" height="27" viewBox="0 0 28 27" fill="none" xmlns="http://www.w3.org/2000/svg">
<g clip-path="url(#clip0_1197_33438)">
<path d="M12.0425 16.0343L16.4319 13.5062L12.0425 10.9781V16.0343Z" fill="white"/>
<path d="M13.7233 0.0117188C6.27188 0.0117188 0.229248 6.05435 0.229248 13.5058C0.229248 20.9572 6.27188 26.9998 13.7233 26.9998C21.1747 26.9998 27.2174 20.9572 27.2174 13.5058C27.2174 6.05435 21.1747 0.0117188 13.7233 0.0117188ZM22.155 13.5196C22.155 13.5196 22.155 16.2562 21.8079 17.5759C21.6133 18.2982 21.0438 18.8677 20.3215 19.0621C19.0018 19.4094 13.7233 19.4094 13.7233 19.4094C13.7233 19.4094 8.45857 19.4094 7.12515 19.0483C6.40284 18.8539 5.83331 18.2842 5.63873 17.5619C5.29137 16.2562 5.29137 13.5058 5.29137 13.5058C5.29137 13.5058 5.29137 10.7693 5.63873 9.44969C5.8331 8.72739 6.41663 8.14386 7.12515 7.94949C8.44478 7.60213 13.7233 7.60213 13.7233 7.60213C13.7233 7.60213 19.0018 7.60213 20.3215 7.96328C21.0438 8.15765 21.6133 8.72739 21.8079 9.44969C22.169 10.7693 22.155 13.5196 22.155 13.5196Z" fill="white"/>
</g>
<defs>
<clipPath id="clip0_1197_33438">
<rect width="26.9881" height="26.9881" fill="white" transform="translate(0.229248 0.0117188)"/>
</clipPath>
</defs>
</svg>
